{
  "results": [
    {
      "user": {
        "email": null,
        "mobile": "12323452345",
        "avatar": "https://imgthisisdashcdn-83chedai-com.alikunlun.com/identicons/995.png",
        "id": "c57d962e-7a7b-45b8-8559-ad787b8200cb",
        "created_at": "2017-06-05 11:11:31",
        "name": "\u53f9"
      },
      "roles": [
        { "id": 6, "name": "\u7535\u6838\u5458" },
        { "id": 7, "name": "\u590d\u5ba1\u5458" }
      ],
      "status": 1
    },
    {
      "user": {
        "email": null,
        "mobile": "11111111111",
        "avatar": "https://imgthisisdashcdn-83chedai-com.alikunlun.com/identicons/603.png",
        "id": "b60e020e-0d1d-485f-829a-23f5a9f88aba",
        "created_at": "2017-03-28 15:11:05",
        "name": "\u8bd5\u8bd5"
      },
      "roles": [{ "id": 2, "name": "\u4e1a\u52a1\u5458" }],
      "status": 1
    },
    {
      "user": {
        "email": null,
        "mobile": "13700000002",
        "avatar": "https://imgthisisdashcdn-83chedai-com.alikunlun.com/identicons/949.png",
        "id": "766c5ce3-d2f9-4098-85b1-d9ab5418161d",
        "created_at": "2017-03-28 14:36:01",
        "name": "\u8def\u675c\u70af"
      },
      "roles": [],
      "status": 1
    },
    {
      "user": {
        "email": null,
        "mobile": "13700000000",
        "avatar": "https://imgthisisdashcdn-83chedai-com.alikunlun.com/identicons/318.png",
        "id": "01345b2e-d165-41bb-8f7f-678a05f4ee25",
        "created_at": "2017-03-28 14:34:08",
        "name": "\u9ec4\u6653\u660e"
      },
      "roles": [
        { "id": 2, "name": "\u4e1a\u52a1\u5458" },
        { "id": 7, "name": "\u590d\u5ba1\u5458" }
      ],
      "status": 1
    },
    {
      "user": {
        "email": null,
        "mobile": "15200000009",
        "avatar": "https://imgthisisdashcdn-83chedai-com.alikunlun.com/identicons/135.png",
        "id": "4df54992-5815-4f4e-870e-6eea7f5a0098",
        "created_at": "2017-02-07 13:41:20",
        "name": "\u8d75\u5168\u80fd"
      },
      "roles": [
        { "id": 1, "name": "\u95e8\u5e97\u7ba1\u7406\u5458" },
        { "id": 2, "name": "\u4e1a\u52a1\u5458" },
        { "id": 3, "name": "\u521d\u5ba1\u5458" },
        { "id": 4, "name": "\u8d22\u52a1" },
        { "id": 5, "name": "\u4e3b\u5ba1\u5458" },
        { "id": 6, "name": "\u7535\u6838\u5458" },
        { "id": 7, "name": "\u590d\u5ba1\u5458" },
        { "id": 8, "name": "\u5ba2\u670d" }
      ],
      "status": 1
    },
    {
      "user": {
        "email": null,
        "mobile": "15200000008",
        "avatar": "https://imgthisisdashcdn-83chedai-com.alikunlun.com/identicons/200.png",
        "id": "f9ca9b47-6f23-4a3b-8c25-7fd77a2b5e79",
        "created_at": "2017-01-23 13:52:22",
        "name": "\u8d75\u5ba2\u670d"
      },
      "roles": [{ "id": 8, "name": "\u5ba2\u670d" }],
      "status": 1
    },
    {
      "user": {
        "email": null,
        "mobile": "15200000007",
        "avatar": "https://imgthisisdashcdn-83chedai-com.alikunlun.com/identicons/427.png",
        "id": "1a796294-4d12-47ed-8e1b-cb8df2b75ef7",
        "created_at": "2017-01-23 13:52:08",
        "name": "\u8d75\u7535\u6838"
      },
      "roles": [{ "id": 6, "name": "\u7535\u6838\u5458" }],
      "status": 1
    },
    {
      "user": {
        "email": null,
        "mobile": "15200000006",
        "avatar": "https://imgthisisdashcdn-83chedai-com.alikunlun.com/identicons/923.png",
        "id": "2cefd04e-fa9a-4b08-8aae-e8b9ba928a86",
        "created_at": "2017-01-23 13:51:46",
        "name": "\u8d75\u8d22\u52a1"
      },
      "roles": [{ "id": 4, "name": "\u8d22\u52a1" }],
      "status": 1
    },
    {
      "user": {
        "email": null,
        "mobile": "15200000005",
        "avatar": "https://imgthisisdashcdn-83chedai-com.alikunlun.com/identicons/910.png",
        "id": "d9b5a0e3-5dab-49c2-88c2-c6ff916794ee",
        "created_at": "2017-01-23 13:51:30",
        "name": "\u8d75\u590d\u5ba1"
      },
      "roles": [{ "id": 7, "name": "\u590d\u5ba1\u5458" }],
      "status": 1
    },
    {
      "user": {
        "email": null,
        "mobile": "15200000004",
        "avatar": "https://imgthisisdashcdn-83chedai-com.alikunlun.com/identicons/177.png",
        "id": "72137b64-f25f-4de3-8a1e-50bf13460f01",
        "created_at": "2017-01-23 13:51:06",
        "name": "\u8d75\u4e3b\u5ba1"
      },
      "roles": [
        { "id": 5, "name": "\u4e3b\u5ba1\u5458" },
        { "id": 3, "name": "\u521d\u5ba1\u5458" }
      ],
      "status": 1
    }
  ],
  "page_size": 10,
  "total_page": 2,
  "page": 1,
  "total_count": 13
}
